…
#Ile przyk³adów ma ka¿da z res_name


```r
ile <- top50 %>% group_by(res_name) %>% summarize(ile = n()) %>% arrange(desc(ile))

ile
```

```
## # A tibble: 50 x 2
##    res_name   ile
##    <chr>    <int>
##  1 SO4       1119
##  2 GOL        775
##  3 EDO        541
##  4 CA         445
##  5 CL         444
##  6 NAG        444
##  7 ZN         366
##  8 MG         252
##  9 PO4        214
## 10 HEM        190
## # ... with 40 more rows
```
…
